[
  {
    "code": "14-2710-1",
    "state": "active",
    "nameLSI": {
      "en": "Goodymat no.2",
      "cz": "Goodymat cislo 2"
    },
    "descLSI": {
      "en": "This is Goodymat no.2",
      "cz": "Toto je Goodymat cislo 2"
    },
    "operationMap": {
      "O1": {
        "customer": "1-1",
        "product": "SMOKED_KNEE"
      },
      "O2": {
        "customer": "111111-1",
        "product": "RABBIT_EARS"
      }
    }
  },
  {
    "code": "101-1",
    "state": "active",
    "nameLSI": {
      "en": "Goodymat no.2",
      "cz": "Goodymat cislo 2"
    },
    "descLSI": {
      "en": "This is Goodymat no.2",
      "cz": "Toto je Goodymat cislo 2"
    },
    "operationMap": {
      "O1": {
        "customer": "1-1",
        "product": "SMOKED_KNEE"
      },
      "O2": {
        "customer": "111111-1",
        "product": "RABBIT_EARS"
      }
    }
  }
]